1 10 20
100 200 125
201 210 89
900 1000 174
289384 930887 525
692778 636916 442
747794 238336 509
885387 760493 525
516650 641422 509
202363 490028 449
368691 520060 470
897764 513927 525
180541 383427 443
89173 455737 449
5212 595369 470
702568 956430 525
465783 21531 449
722863 665124 504
174068 703136 509
513930 979803 525
634023 723059 504
133070 898168 525
961394 18457 525
175012 478043 449
176230 377374 443
484422 544920 470
413785 898538 525
575199 594325 434
798316 664371 504
566414 803527 509
776092 268981 509
759957 241874 509
806863 999171 525
906997 497282 525
702306 420926 509
477085 336328 449
660337 126506 509
750847 621730 509
661314 925858 525
616125 353896 470
819583 100546 509
898815 233368 525
515435 990365 525
344044 313751 384
171088 426809 449
117277 947179 525
695789 393585 509
705404 502652 509
392755 612400 470
999933 95061 525
549677 993369 525
947740 210013 525
636227 698587 442
348095 297540 441
140796 480571 449
651435 960379 525
97468 66602 351
710098 612903 509
573318 570493 372
926653 260757 525
997302 560281 525
724287 209442 509
953866 429690 525
228445 346620 443
558441 744730 509
958032 108118 525
738098 905772 525
834482 890676 525
120710 698928 509
704568 777857 504
179498 872354 525
254587 276966 407
455307 964684 525
406220 28625 443
51529 332872 443
805733 48830 509
409504 530020 470
258271 363369 441
959709 486716 525
226341 518150 470
747797 700724 504
142619 2246 375
122847 493452 449
892922 243556 525
192380 597489 470
537765 888229 525
469842 792351 509
165194 441501 449
757035 87765 509
470125 324915 449
936988 275857 525
373744 346492 410
322228 148366 443
709860 281937 509
151433 452552 449
316438 899229 525
153276 975408 525
901475 276122 525
468859 794396 509
36030 661238 509
908236 573794 525
65819 894429 525
366144 231012 441
335929 639530 509
318777 322405 371
964444 255764 525
114614 854539 525
118607 436841 449
2905 344819 443
235129 670689 509
797370 67918 509
569918 466997 470
43325 987744 525
259471 512184 470
298491 295500 327
689773 206726 509
385645 755591 509
617506 268140 470
502955 469787 426
907670 338083 525
308543 388465 441
110198 939508 525
759356 228805 509
376349 278612 441
573623 127829 470
949300 887344 507
195747 35569 383
354341 755423 509
23312 613811 470
267606 321802 407
425662 473731 444
44879 811306 509
229321 178737 386
79445 248627 443
648523 503466 509
586709 473417 470
408283 213259 443
412925 167638 449
442063 305625 449
962601 532037 525
433453 911900 525
419380 145551 449
947469 290072 525
900974 487132 525
903882 684931 525
808934 845895 525
158661 370164 443
657200 387982 509
548900 252997 470
152960 713774 509
272814 739669 509
187191 681096 509
952927 116467 525
365085 911341 525
422091 327685 449
443377 855543 525
755937 379108 509
517446 219757 470
669180 418419 509
706888 89413 509
103349 32173 351
451660 262010 449
402337 625211 470
166343 467588 449
878207 319302 525
697714 667373 442
575322 401256 470
864820 44600 525
517722 229905 470
955940 939812 414
73941 915668 525
311706 346229 441
811128 829151 450
565985 996659 525
763921 789225 468
602423 867270 525
821397 54082 509
645631 740085 504
679293 811973 504
207673 73851 383
647626 905386 525
741223 739300 393
306641 606043 470
783899 340714 509
352299 256191 441
280525 942591 525
688210 108582 509
288820 499337 449
937733 371156 525
495995 218005 449
160380 614770 470
85274 981777 525
668851 247256 509
721861 348143 509
575580 445885 470
421994 223206 449
867622 679568 525
962505 690614 525
801962 262755 509
31327 154260 375
518945 828203 509
613203 723507 509
936785 902022 476
222843 390869 443
789529 235190 509
608873 949909 525
849959 210499 525
448037 518809 470
457754 686249 509
383304 33334 443
132134 321649 443
772891 999755 525
517568 251747 470
690369 319530 509
514501 238047 470
473789 549798 470
66250 86991 351
273304 3034 443
505364 12498 449
910254 294893 525
247687 519126 470
761153 613997 509
245976 209189 443
649158 703730 442
895437 32461 525
253415 543922 470
870461 26305 525
60029 388028 443
278051 266749 407
707557 308903 509
504795 697698 509
858700 571044 525
301040 132003 443
90429 806404 509
144501 682 375
617648 908539 525
36160 895152 525
522536 282135 470
104340 171693 383
502216 516128 470
720505 755630 424
60050 590965 470
298286 636430 509
495344 576336 470
903178 202901 525
885239 407972 525
416950 260290 449
495368 717989 509
392293 585796 470
40744 53145 340
102830 658391 509
961683 655341 525
553542 570 470
453827 174233 449
