653565 456766 509
635103 398845 509
3725 384862 443
184527 235036 443
74546 416202 449
747865 25481 509
562772 400096 470
569543 620482 447
524453 692125 509
411222 254935 449
260196 300083 407
104086 187013 383
793127 515676 509
6843 47456 324
716614 627374 504
520873 666646 509
262888 122721 443
132986 656434 509
390109 171728 443
215885 368379 443
198338 37812 383
59053 256472 443
568881 388086 470
5339 140982 354
346534 288237 441
575124 415398 470
218521 197853 386
621299 631214 509
793762 49381 509
389072 465457 449
48766 275015 443
54605 418883 449
7040 558232 470
613723 261787 470
688104 707332 504
740371 425155 509
477818 768666 509
660175 285935 509
324188 123396 443
420002 614757 470
321015 85638 443
539442 471133 470
74262 368890 443
627293 579343 509
335288 504404 449
203836 760148 509
596422 534342 452
95732 507157 449
252436 282683 407
421439 81742 449
474911 786622 509
760999 475085 509
25746 669420 509
394600 752612 509
466943 383951 449
9185 195663 383
102899 415681 449
79613 792005 509
715767 331159 509
285941 566949 470
370605 232199 441
583333 285230 470
708645 109489 509
474704 317149 449
542593 499141 470
223182 764134 509
126723 290187 443
192259 207753 373
13947 423641 449
100347 204116 383
460100 795529 509
471065 621208 470
127008 396741 443
330886 494244 449
536529 127173 470
651638 192942 509
255768 613450 470
562235 790905 509
431365 514311 470
535075 68738 470
625381 585960 447
295799 412803 449
520441 721185 509
554005 598414 434
74566 728023 509
799869 581702 509
237357 424087 449
296385 644307 509
543989 286879 470
771831 109306 509
87991 585442 470
780848 478259 509
31086 168357 383
19724 615939 470
582555 649259 509
594079 477650 470
360721 54787 443
194379 499280 449
258084 21433 443
796844 422744 509
791821 738111 468
472896 146847 449
60121 760470 509
788342 504300 509
605647 264961 470
795257 210241 509
42353 513849 470
22440 698169 509
528436 395927 470
66774 160775 383
11027 384770 443
348502 781578 509
167536 195023 365
382995 736193 509
422306 442846 418
654226 484069 509
246973 673390 509
158999 276708 443
433295 672480 509
170801 694481 509
638635 318228 509
514281 41322 470
640997 128665 509
799322 244145 509
519592 32516 470
570450 96021 470
441554 671756 509
89972 174621 383
245166 37624 443
60273 628477 509
268858 702156 509
105336 315739 443
544614 89491 470
13504 67810 340
130553 115940 344
601998 268684 470
736906 603107 509
83314 300710 443
578919 481909 470
782910 444699 509
693168 242759 509
329931 98340 443
414394 623339 470
423966 626642 509
466207 238601 449
584903 282693 470
304023 155740 443
365222 745461 509
175762 739893 509
369710 179186 443
672373 477711 509
600118 304730 470
186067 745266 509
308995 681730 509
769992 681758 504
218536 357412 443
421801 461265 444
1818 361128 443
616138 441378 470
704334 216217 509
403326 291536 441
252471 518626 470
765506 551621 509
749599 236619 509
285061 216867 443
557185 165689 470
459968 489131 444
532308 166090 470
204533 598437 470
225749 445889 449
576227 552200 421
215642 649897 509
21711 389341 443
26366 432015 449
550167 419765 470
797840 511079 509
723597 466083 509
475640 134846 449
363226 205054 443
339123 78837 443
515824 406297 470
776256 261033 509
96607 653570 509
459935 45029 449
730306 780330 468
796084 672926 504
7798 143141 375
58781 6638 340
271963 507206 449
246707 234439 368
260689 760812 509
627741 235949 509
668264 613464 509
745437 29189 509
428372 331815 449
682049 264749 509
691114 547273 509
359755 626457 509
284698 624654 470
18133 586173 470
68149 649541 509
553831 206402 470
789967 433727 509
788821 367389 509
624636 664370 509
677707 447953 509
685503 230206 509
171889 83820 383
447094 39977 449
460382 547753 470
495339 300291 449
293073 756218 509
188553 559463 470
655252 460237 509
166362 231827 443
240226 154066 443
441830 278360 449
152718 467461 449
697713 665094 442
666115 638213 442
264219 139168 443
671744 641202 442
381258 499931 449
57227 81132 351
548091 177533 470
161934 3616 383
315695 170308 443
592064 202362 470
404929 148617 443
667708 4399 509
683570 304912 509
405457 489571 449
429289 160729 449
768404 19007 509
98245 124552 354
528988 612167 452
483217 131903 449
755086 448152 509
164239 23476 383
502037 234618 449
549127 526650 452
258411 162552 443
588800 114818 470
422323 240228 449
334119 462974 449
766152 578205 509
475266 205367 449
201096 13153 383
665990 267432 509
569499 223591 470
